Part 1/transcript.txt
PS C:\Users\froth\Documents\GitHub\ComputerOrgProject> vvp sisc_tb.vvp
IR=00000000 R1=00000000 R2=00000000 R3=00000000 R4=00000000 R5=00000000 ALU_OP=0000 WB_SEL=0 RF_WE=0 WRITE_DATA=xxxxxxxx
IR=00000000 R1=00000000 R2=00000000 R3=00000000 R4=00000000 R5=00000000 ALU_OP=0000 WB_SEL=0 RF_WE=0 WRITE_DATA=00000000
IR=21100001 R1=00000000 R2=00000000 R3=00000000 R4=00000000 R5=00000000 ALU_OP=0000 WB_SEL=0 RF_WE=0 WRITE_DATA=00000000
IR=21100001 R1=00000000 R2=00000000 R3=00000000 R4=00000000 R5=00000000 ALU_OP=0011 WB_SEL=0 RF_WE=0 WRITE_DATA=00000000
IR=21100001 R1=00000000 R2=00000000 R3=00000000 R4=00000000 R5=00000000 ALU_OP=0011 WB_SEL=0 RF_WE=0 WRITE_DATA=00000001
IR=21100001 R1=00000000 R2=00000000 R3=00000000 R4=00000000 R5=00000000 ALU_OP=0000 WB_SEL=0 RF_WE=1 WRITE_DATA=00000001
IR=21100001 R1=00000001 R2=00000000 R3=00000000 R4=00000000 R5=00000000 ALU_OP=0000 WB_SEL=0 RF_WE=0 WRITE_DATA=00000000
IR=11211000 R1=00000001 R2=00000000 R3=00000000 R4=00000000 R5=00000000 ALU_OP=0000 WB_SEL=0 RF_WE=0 WRITE_DATA=00000000
IR=11211000 R1=00000001 R2=00000000 R3=00000000 R4=00000000 R5=00000000 ALU_OP=0001 WB_SEL=0 RF_WE=0 WRITE_DATA=00000002
IR=11211000 R1=00000001 R2=00000000 R3=00000000 R4=00000000 R5=00000000 ALU_OP=0001 WB_SEL=0 RF_WE=0 WRITE_DATA=00000002
IR=11211000 R1=00000001 R2=00000000 R3=00000000 R4=00000000 R5=00000000 ALU_OP=0000 WB_SEL=0 RF_WE=1 WRITE_DATA=00000002
IR=11211000 R1=00000001 R2=00000002 R3=00000000 R4=00000000 R5=00000000 ALU_OP=0000 WB_SEL=0 RF_WE=0 WRITE_DATA=00000002
IR=1b322000 R1=00000001 R2=00000002 R3=00000000 R4=00000000 R5=00000000 ALU_OP=0000 WB_SEL=0 RF_WE=0 WRITE_DATA=00000002
IR=1b322000 R1=00000001 R2=00000002 R3=00000000 R4=00000000 R5=00000000 ALU_OP=0001 WB_SEL=0 RF_WE=0 WRITE_DATA=00000008
IR=1b322000 R1=00000001 R2=00000002 R3=00000000 R4=00000000 R5=00000000 ALU_OP=0001 WB_SEL=0 RF_WE=0 WRITE_DATA=00000008
IR=1b322000 R1=00000001 R2=00000002 R3=00000000 R4=00000000 R5=00000000 ALU_OP=0000 WB_SEL=0 RF_WE=1 WRITE_DATA=00000008
IR=1b322000 R1=00000001 R2=00000002 R3=00000008 R4=00000000 R5=00000000 ALU_OP=0000 WB_SEL=0 RF_WE=0 WRITE_DATA=00000008
IR=12412000 R1=00000001 R2=00000002 R3=00000008 R4=00000000 R5=00000000 ALU_OP=0000 WB_SEL=0 RF_WE=0 WRITE_DATA=00000008
IR=12412000 R1=00000001 R2=00000002 R3=00000008 R4=00000000 R5=00000000 ALU_OP=0001 WB_SEL=0 RF_WE=0 WRITE_DATA=ffffffff
IR=12412000 R1=00000001 R2=00000002 R3=00000008 R4=00000000 R5=00000000 ALU_OP=0001 WB_SEL=0 RF_WE=0 WRITE_DATA=ffffffff
IR=12412000 R1=00000001 R2=00000002 R3=00000008 R4=00000000 R5=00000000 ALU_OP=0000 WB_SEL=0 RF_WE=1 WRITE_DATA=ffffffff
IR=12412000 R1=00000001 R2=00000002 R3=00000008 R4=ffffffff R5=00000000 ALU_OP=0000 WB_SEL=0 RF_WE=0 WRITE_DATA=ffffffff
IR=1a443000 R1=00000001 R2=00000002 R3=00000008 R4=ffffffff R5=00000000 ALU_OP=0000 WB_SEL=0 RF_WE=0 WRITE_DATA=ffffffff
IR=1a443000 R1=00000001 R2=00000002 R3=00000008 R4=ffffffff R5=00000000 ALU_OP=0001 WB_SEL=0 RF_WE=0 WRITE_DATA=00ffffff
IR=1a443000 R1=00000001 R2=00000002 R3=00000008 R4=ffffffff R5=00000000 ALU_OP=0001 WB_SEL=0 RF_WE=0 WRITE_DATA=00ffffff
IR=1a443000 R1=00000001 R2=00000002 R3=00000008 R4=ffffffff R5=00000000 ALU_OP=0000 WB_SEL=0 RF_WE=1 WRITE_DATA=00ffffff
IR=1a443000 R1=00000001 R2=00000002 R3=00000008 R4=00ffffff R5=00000000 ALU_OP=0000 WB_SEL=0 RF_WE=0 WRITE_DATA=00ffffff
IR=17234000 R1=00000001 R2=00000002 R3=00000008 R4=00ffffff R5=00000000 ALU_OP=0000 WB_SEL=0 RF_WE=0 WRITE_DATA=00ffffff
IR=17234000 R1=00000001 R2=00000002 R3=00000008 R4=00ffffff R5=00000000 ALU_OP=0001 WB_SEL=0 RF_WE=0 WRITE_DATA=00fffff7
IR=17234000 R1=00000001 R2=00000002 R3=00000008 R4=00ffffff R5=00000000 ALU_OP=0001 WB_SEL=0 RF_WE=0 WRITE_DATA=00fffff7
IR=17234000 R1=00000001 R2=00000002 R3=00000008 R4=00ffffff R5=00000000 ALU_OP=0000 WB_SEL=0 RF_WE=1 WRITE_DATA=00fffff7
IR=17234000 R1=00000001 R2=00fffff7 R3=00000008 R4=00ffffff R5=00000000 ALU_OP=0000 WB_SEL=0 RF_WE=0 WRITE_DATA=00fffff7
IR=14220000 R1=00000001 R2=00fffff7 R3=00000008 R4=00ffffff R5=00000000 ALU_OP=0000 WB_SEL=0 RF_WE=0 WRITE_DATA=00fffff7
IR=14220000 R1=00000001 R2=00fffff7 R3=00000008 R4=00ffffff R5=00000000 ALU_OP=0001 WB_SEL=0 RF_WE=0 WRITE_DATA=ff000008
IR=14220000 R1=00000001 R2=00fffff7 R3=00000008 R4=00ffffff R5=00000000 ALU_OP=0001 WB_SEL=0 RF_WE=0 WRITE_DATA=ff000008
IR=14220000 R1=00000001 R2=00fffff7 R3=00000008 R4=00ffffff R5=00000000 ALU_OP=0000 WB_SEL=0 RF_WE=1 WRITE_DATA=ff000008
IR=14220000 R1=00000001 R2=ff000008 R3=00000008 R4=00ffffff R5=00000000 ALU_OP=0000 WB_SEL=0 RF_WE=0 WRITE_DATA=ff000008
IR=19421000 R1=00000001 R2=ff000008 R3=00000008 R4=00ffffff R5=00000000 ALU_OP=0000 WB_SEL=0 RF_WE=0 WRITE_DATA=ff000008
IR=19421000 R1=00000001 R2=ff000008 R3=00000008 R4=00ffffff R5=00000000 ALU_OP=0001 WB_SEL=0 RF_WE=0 WRITE_DATA=fe000011
IR=19421000 R1=00000001 R2=ff000008 R3=00000008 R4=00ffffff R5=00000000 ALU_OP=0001 WB_SEL=0 RF_WE=0 WRITE_DATA=fe000011
IR=19421000 R1=00000001 R2=ff000008 R3=00000008 R4=00ffffff R5=00000000 ALU_OP=0000 WB_SEL=0 RF_WE=1 WRITE_DATA=fe000011
IR=19421000 R1=00000001 R2=ff000008 R3=00000008 R4=fe000011 R5=00000000 ALU_OP=0000 WB_SEL=0 RF_WE=0 WRITE_DATA=fe000011
IR=15524000 R1=00000001 R2=ff000008 R3=00000008 R4=fe000011 R5=00000000 ALU_OP=0000 WB_SEL=0 RF_WE=0 WRITE_DATA=fe000011
IR=15524000 R1=00000001 R2=ff000008 R3=00000008 R4=fe000011 R5=00000000 ALU_OP=0001 WB_SEL=0 RF_WE=0 WRITE_DATA=ff000019
IR=15524000 R1=00000001 R2=ff000008 R3=00000008 R4=fe000011 R5=00000000 ALU_OP=0001 WB_SEL=0 RF_WE=0 WRITE_DATA=ff000019
IR=15524000 R1=00000001 R2=ff000008 R3=00000008 R4=fe000011 R5=00000000 ALU_OP=0000 WB_SEL=0 RF_WE=1 WRITE_DATA=ff000019
IR=15524000 R1=00000001 R2=ff000008 R3=00000008 R4=fe000011 R5=ff000019 ALU_OP=0000 WB_SEL=0 RF_WE=0 WRITE_DATA=ff000019
IR=16324000 R1=00000001 R2=ff000008 R3=00000008 R4=fe000011 R5=ff000019 ALU_OP=0000 WB_SEL=0 RF_WE=0 WRITE_DATA=ff000019
IR=16324000 R1=00000001 R2=ff000008 R3=00000008 R4=fe000011 R5=ff000019 ALU_OP=0001 WB_SEL=0 RF_WE=0 WRITE_DATA=fe000000
IR=16324000 R1=00000001 R2=ff000008 R3=00000008 R4=fe000011 R5=ff000019 ALU_OP=0001 WB_SEL=0 RF_WE=0 WRITE_DATA=fe000000
IR=16324000 R1=00000001 R2=ff000008 R3=00000008 R4=fe000011 R5=ff000019 ALU_OP=0000 WB_SEL=0 RF_WE=1 WRITE_DATA=fe000000
IR=16324000 R1=00000001 R2=ff000008 R3=fe000000 R4=fe000011 R5=ff000019 ALU_OP=0000 WB_SEL=0 RF_WE=0 WRITE_DATA=fe000000
IR=00000000 R1=00000001 R2=ff000008 R3=fe000000 R4=fe000011 R5=ff000019 ALU_OP=0000 WB_SEL=0 RF_WE=0 WRITE_DATA=fe000000
IR=00000000 R1=00000001 R2=ff000008 R3=fe000000 R4=fe000011 R5=ff000019 ALU_OP=0000 WB_SEL=0 RF_WE=0 WRITE_DATA=00000000
IR=21100001 R1=00000001 R2=ff000008 R3=fe000000 R4=fe000011 R5=ff000019 ALU_OP=0000 WB_SEL=0 RF_WE=0 WRITE_DATA=00000000
IR=21100001 R1=00000001 R2=ff000008 R3=fe000000 R4=fe000011 R5=ff000019 ALU_OP=0011 WB_SEL=0 RF_WE=0 WRITE_DATA=00000000
IR=21100001 R1=00000001 R2=ff000008 R3=fe000000 R4=fe000011 R5=ff000019 ALU_OP=0011 WB_SEL=0 RF_WE=0 WRITE_DATA=00000001
IR=21100001 R1=00000001 R2=ff000008 R3=fe000000 R4=fe000011 R5=ff000019 ALU_OP=0000 WB_SEL=0 RF_WE=1 WRITE_DATA=00000001
IR=21100001 R1=00000001 R2=ff000008 R3=fe000000 R4=fe000011 R5=ff000019 ALU_OP=0000 WB_SEL=0 RF_WE=0 WRITE_DATA=00000000
IR=12211000 R1=00000001 R2=ff000008 R3=fe000000 R4=fe000011 R5=ff000019 ALU_OP=0000 WB_SEL=0 RF_WE=0 WRITE_DATA=00000000
IR=12211000 R1=00000001 R2=ff000008 R3=fe000000 R4=fe000011 R5=ff000019 ALU_OP=0001 WB_SEL=0 RF_WE=0 WRITE_DATA=00000000
IR=12211000 R1=00000001 R2=ff000008 R3=fe000000 R4=fe000011 R5=ff000019 ALU_OP=0001 WB_SEL=0 RF_WE=0 WRITE_DATA=00000000
IR=12211000 R1=00000001 R2=ff000008 R3=fe000000 R4=fe000011 R5=ff000019 ALU_OP=0000 WB_SEL=0 RF_WE=1 WRITE_DATA=00000000
IR=12211000 R1=00000001 R2=00000000 R3=fe000000 R4=fe000011 R5=ff000019 ALU_OP=0000 WB_SEL=0 RF_WE=0 WRITE_DATA=00000000
IR=12201000 R1=00000001 R2=00000000 R3=fe000000 R4=fe000011 R5=ff000019 ALU_OP=0000 WB_SEL=0 RF_WE=0 WRITE_DATA=00000000
IR=12201000 R1=00000001 R2=00000000 R3=fe000000 R4=fe000011 R5=ff000019 ALU_OP=0001 WB_SEL=0 RF_WE=0 WRITE_DATA=ffffffff
IR=12201000 R1=00000001 R2=00000000 R3=fe000000 R4=fe000011 R5=ff000019 ALU_OP=0001 WB_SEL=0 RF_WE=0 WRITE_DATA=ffffffff
IR=12201000 R1=00000001 R2=00000000 R3=fe000000 R4=fe000011 R5=ff000019 ALU_OP=0000 WB_SEL=0 RF_WE=1 WRITE_DATA=ffffffff
IR=12201000 R1=00000001 R2=ffffffff R3=fe000000 R4=fe000011 R5=ff000019 ALU_OP=0000 WB_SEL=0 RF_WE=0 WRITE_DATA=ffffffff
=0 WRITE_DATA=80000000
IR=11423000 R1=00000001 R2=ffffffff R3=80000000 R4=fe000011 R5=ff000019 ALU_OP=0001 WB_SEL=0 RF_WE=0 WRITE_DATA=7fffffff
IR=11423000 R1=00000001 R2=ffffffff R3=80000000 R4=fe000011 R5=ff000019 ALU_OP=0001 WB_SEL=0 RF_WE=0 WRITE_DATA=7fffffff
IR=11423000 R1=00000001 R2=ffffffff R3=80000000 R4=fe000011 R5=ff000019 ALU_OP=0000 WB_SEL=0 RF_WE=1 WRITE_DATA=7fffffff
IR=11423000 R1=00000001 R2=ffffffff R3=80000000 R4=7fffffff R5=ff000019 ALU_OP=0000 WB_SEL=0 RF_WE=0 WRITE_DATA=7fffffff
IR=f0000000 R1=00000001 R2=ffffffff R3=80000000 R4=7fffffff R5=ff000019 ALU_OP=0000 WB_SEL=0 RF_WE=0 WRITE_DATA=7fffffff
Halt.
Work(Part1)\ctrl.v:118: $stop called at 8900 (100ps)
** VVP Stop(0) **
** Flushing output streams.
** Current simulation time is 8900 ticks.
>